…
### Model Training and Prediction

Continuing with our example, we now load a simulated reference data set
that we are using to train a Random Forest model.

``` r
(reference <- system.file("corg-simulated-sample.gpkg", 
                          package = "mscomposer") |>
   read_sf())
#> Simple feature collection with 60 features and 2 fields
#> Geometry type: POINT
#> Dimension:     XY
#> Bounding box:  xmin: 498411.7 ymin: 5269508 xmax: 502081.7 ymax: 5272458
#> Projected CRS: WGS 84 / UTM zone 32N
#> # A tibble: 60 × 3
#>       corg    ID               geom
#>      <dbl> <int>        <POINT [m]>
#>  1 0.0341      1 (502081.7 5269588)
#>  2 0.00342     2 (500801.7 5270358)
#>  3 0.0365      3 (500161.7 5270578)
#>  4 0.0134      4 (501431.7 5271818)
#>  5 0.0135      5 (498841.7 5271438)
#>  6 0.00249     6 (499611.7 5269748)
#>  7 0.0175      7 (500931.7 5271628)
#>  8 0.0253      8 (498611.7 5271948)
#>  9 0.00125     9 (501061.7 5272458)
#> 10 0.00873    10 (499001.7 5271818)
#> # ℹ 50 more rows
…
